D:\mypro\DevelopingMicroservices\Portal\CodeProject.Portal\src\app\shared-models\appsettings.model.js
D:\mypro\DevelopingMicroservices\Portal\CodeProject.Portal\src\app\shared-view-models\user.viewmodel.js
D:\mypro\DevelopingMicroservices\Portal\CodeProject.Portal\src\app\shared-components-services\session.service.js
D:\mypro\DevelopingMicroservices\Portal\CodeProject.Portal\src\app\shared-components-services\alert.service.js
D:\mypro\DevelopingMicroservices\Portal\CodeProject.Portal\src\app\app.component.js
D:\mypro\DevelopingMicroservices\Portal\CodeProject.Portal\src\app\home-directory\about\about.component.js
D:\mypro\DevelopingMicroservices\Portal\CodeProject.Portal\src\app\home-directory\contact\contact.component.js
D:\mypro\DevelopingMicroservices\Portal\CodeProject.Portal\src\app\home-directory\home\home.component.js
D:\mypro\DevelopingMicroservices\Portal\CodeProject.Portal\src\app\application-routing.js
D:\mypro\DevelopingMicroservices\Portal\CodeProject.Portal\src\app\shared-components-services\http.service.js
D:\mypro\DevelopingMicroservices\Portal\CodeProject.Portal\src\app\shared-components-services\http-interceptor.service.js
D:\mypro\DevelopingMicroservices\Portal\CodeProject.Portal\src\app\main-nav\main-nav.component.js
D:\mypro\DevelopingMicroservices\Portal\CodeProject.Portal\src\app\material.module.js
D:\mypro\DevelopingMicroservices\Portal\CodeProject.Portal\src\app\app.module.js
D:\mypro\DevelopingMicroservices\Portal\CodeProject.Portal\src\environments\environment.js
D:\mypro\DevelopingMicroservices\Portal\CodeProject.Portal\src\main.js
D:\mypro\DevelopingMicroservices\Portal\CodeProject.Portal\src\polyfills.js
D:\mypro\DevelopingMicroservices\Portal\CodeProject.Portal\src\test.js
D:\mypro\DevelopingMicroservices\Portal\CodeProject.Portal\src\app\app.component.spec.js
D:\mypro\DevelopingMicroservices\Portal\CodeProject.Portal\src\app\shared-models\response.model.js
D:\mypro\DevelopingMicroservices\Portal\CodeProject.Portal\src\app\account-management\view-models\user-response.viewmodel.js
D:\mypro\DevelopingMicroservices\Portal\CodeProject.Portal\src\app\account-management\login\login.component.js
D:\mypro\DevelopingMicroservices\Portal\CodeProject.Portal\src\app\account-management\register\register.component.js
D:\mypro\DevelopingMicroservices\Portal\CodeProject.Portal\src\app\account-management\account-management.routing.js
D:\mypro\DevelopingMicroservices\Portal\CodeProject.Portal\src\app\account-management\account-management.module.js
D:\mypro\DevelopingMicroservices\Portal\CodeProject.Portal\src\app\account-management\login\login.component.spec.js
D:\mypro\DevelopingMicroservices\Portal\CodeProject.Portal\src\app\account-management\register\register.component.spec.js
D:\mypro\DevelopingMicroservices\Portal\CodeProject.Portal\src\app\home-directory\about\about.component.spec.js
D:\mypro\DevelopingMicroservices\Portal\CodeProject.Portal\src\app\home-directory\contact\contact.component.spec.js
D:\mypro\DevelopingMicroservices\Portal\CodeProject.Portal\src\app\home-directory\home\home.component.spec.js
D:\mypro\DevelopingMicroservices\Portal\CodeProject.Portal\src\app\inventory-management\upload-product-master\upload-product-master.component.js
D:\mypro\DevelopingMicroservices\Portal\CodeProject.Portal\src\app\inventory-management\view-models\purchase-order-detail.viewmodel.js
D:\mypro\DevelopingMicroservices\Portal\CodeProject.Portal\src\app\inventory-management\view-models\purchase-order.viewmodel.js
D:\mypro\DevelopingMicroservices\Portal\CodeProject.Portal\src\app\inventory-management\view-models\purchase-order-response.viewmodel.js
D:\mypro\DevelopingMicroservices\Portal\CodeProject.Portal\src\app\inventory-management\view-models\purchase-order-inquiry-response.viewmodel.js
D:\mypro\DevelopingMicroservices\Portal\CodeProject.Portal\src\app\inventory-management\view-models\purchase-order-inquiry.viewmodel.js
D:\mypro\DevelopingMicroservices\Portal\CodeProject.Portal\src\app\inventory-management\purchase-order-inquiry\purchase-order-inquiry.component.js
D:\mypro\DevelopingMicroservices\Portal\CodeProject.Portal\src\app\inventory-management\view-models\sales-order-detail.viewmodel.js
D:\mypro\DevelopingMicroservices\Portal\CodeProject.Portal\src\app\inventory-management\view-models\sales-order.viewmodel.js
D:\mypro\DevelopingMicroservices\Portal\CodeProject.Portal\src\app\inventory-management\view-models\sales-order-response.viewmodel.js
D:\mypro\DevelopingMicroservices\Portal\CodeProject.Portal\src\app\inventory-management\view-models\sales-order-inquiry-response.viewmodel.js
D:\mypro\DevelopingMicroservices\Portal\CodeProject.Portal\src\app\inventory-management\view-models\sales-order-inquiry.viewmodel.js
D:\mypro\DevelopingMicroservices\Portal\CodeProject.Portal\src\app\inventory-management\sales-order-inquiry\sales-order-inquiry.component.js
D:\mypro\DevelopingMicroservices\Portal\CodeProject.Portal\src\app\inventory-management\inventory-management-nav-bar\inventory-management-nav-bar.component.js
D:\mypro\DevelopingMicroservices\Portal\CodeProject.Portal\src\app\inventory-management\view-models\purchase-order-detail-response.viewmodel.js
D:\mypro\DevelopingMicroservices\Portal\CodeProject.Portal\src\app\inventory-management\purchase-order-receiving\purchase-order-receiving.component.js
D:\mypro\DevelopingMicroservices\Portal\CodeProject.Portal\src\app\inventory-management\view-models\sales-order-detail-response.viewmodel.js
D:\mypro\DevelopingMicroservices\Portal\CodeProject.Portal\src\app\inventory-management\sales-order-shipments\sales-order-shipments.component.js
D:\mypro\DevelopingMicroservices\Portal\CodeProject.Portal\src\app\inventory-management\view-models\product.viewmodel.js
D:\mypro\DevelopingMicroservices\Portal\CodeProject.Portal\src\app\inventory-management\view-models\product-response.viewmodel.js
D:\mypro\DevelopingMicroservices\Portal\CodeProject.Portal\src\app\inventory-management\product-maintenance\product-maintenance.component.js
D:\mypro\DevelopingMicroservices\Portal\CodeProject.Portal\src\app\inventory-management\view-models\product-inquiry-response.viewmodel.js
D:\mypro\DevelopingMicroservices\Portal\CodeProject.Portal\src\app\inventory-management\view-models\product-inquiry.viewmodel.js
D:\mypro\DevelopingMicroservices\Portal\CodeProject.Portal\src\app\inventory-management\product-inquiry\product-inquiry.component.js
D:\mypro\DevelopingMicroservices\Portal\CodeProject.Portal\src\app\inventory-management\inventory-management.routing.js
D:\mypro\DevelopingMicroservices\Portal\CodeProject.Portal\src\app\inventory-management\inventory-management.module.js
D:\mypro\DevelopingMicroservices\Portal\CodeProject.Portal\src\app\inventory-management\inventory-management-nav-bar\inventory-management-nav-bar.component.spec.js
D:\mypro\DevelopingMicroservices\Portal\CodeProject.Portal\src\app\inventory-management\product-inquiry\product-inquiry.component.spec.js
D:\mypro\DevelopingMicroservices\Portal\CodeProject.Portal\src\app\inventory-management\product-maintenance\product-maintenance.component.spec.js
D:\mypro\DevelopingMicroservices\Portal\CodeProject.Portal\src\app\inventory-management\purchase-order-inquiry\purchase-order-inquiry.component.spec.js
D:\mypro\DevelopingMicroservices\Portal\CodeProject.Portal\src\app\inventory-management\purchase-order-receiving\purchase-order-receiving.component.spec.js
D:\mypro\DevelopingMicroservices\Portal\CodeProject.Portal\src\app\inventory-management\sales-order-inquiry\sales-order-inquiry.component.spec.js
D:\mypro\DevelopingMicroservices\Portal\CodeProject.Portal\src\app\inventory-management\sales-order-shipments\sales-order-shipments.component.spec.js
D:\mypro\DevelopingMicroservices\Portal\CodeProject.Portal\src\app\inventory-management\upload-product-master\upload-product-master.component.spec.js
D:\mypro\DevelopingMicroservices\Portal\CodeProject.Portal\src\app\main-nav\main-nav.component.spec.js
D:\mypro\DevelopingMicroservices\Portal\CodeProject.Portal\src\app\purchase-order-management\view-models\supplier.viewmodel.js
D:\mypro\DevelopingMicroservices\Portal\CodeProject.Portal\src\app\purchase-order-management\view-models\supplier-response.viewmodel.js
D:\mypro\DevelopingMicroservices\Portal\CodeProject.Portal\src\app\purchase-order-management\view-models\purchase-order-detail.viewmodel.js
D:\mypro\DevelopingMicroservices\Portal\CodeProject.Portal\src\app\purchase-order-management\view-models\purchase-order.viewmodel.js
D:\mypro\DevelopingMicroservices\Portal\CodeProject.Portal\src\app\purchase-order-management\view-models\purchase-order-response.viewmodel.js
D:\mypro\DevelopingMicroservices\Portal\CodeProject.Portal\src\app\purchase-order-management\supplier-maintenance\supplier-maintenance.component.js
D:\mypro\DevelopingMicroservices\Portal\CodeProject.Portal\src\app\purchase-order-management\view-models\supplier-inquiry-response.viewmodel.js
D:\mypro\DevelopingMicroservices\Portal\CodeProject.Portal\src\app\purchase-order-management\view-models\supplier-inquiry.viewmodel.js
D:\mypro\DevelopingMicroservices\Portal\CodeProject.Portal\src\app\purchase-order-management\supplier-inquiry\supplier-inquiry.component.js
D:\mypro\DevelopingMicroservices\Portal\CodeProject.Portal\src\app\purchase-order-management\view-models\product.viewmodel.js
D:\mypro\DevelopingMicroservices\Portal\CodeProject.Portal\src\app\purchase-order-management\view-models\product-response.viewmodel.js
D:\mypro\DevelopingMicroservices\Portal\CodeProject.Portal\src\app\purchase-order-management\view-models\purchase-order-detail-response.viewmodel.js
D:\mypro\DevelopingMicroservices\Portal\CodeProject.Portal\src\app\purchase-order-management\purchase-order-maintenance\purchase-order-maintenance.component.js
D:\mypro\DevelopingMicroservices\Portal\CodeProject.Portal\src\app\purchase-order-management\view-models\purchase-order-inquiry-response.viewmodel.js
D:\mypro\DevelopingMicroservices\Portal\CodeProject.Portal\src\app\purchase-order-management\view-models\purchase-order-inquiry.viewmodel.js
D:\mypro\DevelopingMicroservices\Portal\CodeProject.Portal\src\app\purchase-order-management\purchase-order-inquiry\purchase-order-inquiry.component.js
D:\mypro\DevelopingMicroservices\Portal\CodeProject.Portal\src\app\purchase-order-management\purchase-order-management.routing.js
D:\mypro\DevelopingMicroservices\Portal\CodeProject.Portal\src\app\purchase-order-management\purchase-order-management-nav-bar\purchase-order-management-nav-bar.component.js
D:\mypro\DevelopingMicroservices\Portal\CodeProject.Portal\src\app\purchase-order-management\purchase-order-management.module.js
D:\mypro\DevelopingMicroservices\Portal\CodeProject.Portal\src\app\purchase-order-management\purchase-order-inquiry\purchase-order-inquiry.component.spec.js
D:\mypro\DevelopingMicroservices\Portal\CodeProject.Portal\src\app\purchase-order-management\purchase-order-maintenance\purchase-order-maintenance.component.spec.js
D:\mypro\DevelopingMicroservices\Portal\CodeProject.Portal\src\app\purchase-order-management\purchase-order-management-nav-bar\purchase-order-management-nav-bar.component.spec.js
D:\mypro\DevelopingMicroservices\Portal\CodeProject.Portal\src\app\purchase-order-management\supplier-inquiry\supplier-inquiry.component.spec.js
D:\mypro\DevelopingMicroservices\Portal\CodeProject.Portal\src\app\purchase-order-management\supplier-maintenance\supplier-maintenance.component.spec.js
D:\mypro\DevelopingMicroservices\Portal\CodeProject.Portal\src\app\sales-order-management\view-models\customer.viewmodel.js
D:\mypro\DevelopingMicroservices\Portal\CodeProject.Portal\src\app\sales-order-management\view-models\customer-response.viewmodel.js
D:\mypro\DevelopingMicroservices\Portal\CodeProject.Portal\src\app\sales-order-management\view-models\sales-order-detail.viewmodel.js
D:\mypro\DevelopingMicroservices\Portal\CodeProject.Portal\src\app\sales-order-management\view-models\sales-order.viewmodel.js
D:\mypro\DevelopingMicroservices\Portal\CodeProject.Portal\src\app\sales-order-management\view-models\sales-order-response.viewmodel.js
D:\mypro\DevelopingMicroservices\Portal\CodeProject.Portal\src\app\sales-order-management\customer-maintenance\customer-maintenance.component.js
D:\mypro\DevelopingMicroservices\Portal\CodeProject.Portal\src\app\sales-order-management\view-models\customer-inquiry-response.viewmodel.js
D:\mypro\DevelopingMicroservices\Portal\CodeProject.Portal\src\app\sales-order-management\view-models\customer-inquiry.viewmodel.js
D:\mypro\DevelopingMicroservices\Portal\CodeProject.Portal\src\app\sales-order-management\customer-inquiry\customer-inquiry.component.js
D:\mypro\DevelopingMicroservices\Portal\CodeProject.Portal\src\app\sales-order-management\view-models\product.viewmodel.js
D:\mypro\DevelopingMicroservices\Portal\CodeProject.Portal\src\app\sales-order-management\view-models\product-response.viewmodel.js
D:\mypro\DevelopingMicroservices\Portal\CodeProject.Portal\src\app\sales-order-management\view-models\sales-order-detail-response.viewmodel.js
D:\mypro\DevelopingMicroservices\Portal\CodeProject.Portal\src\app\sales-order-management\sales-order-maintenance\sales-order-maintenance.component.js
D:\mypro\DevelopingMicroservices\Portal\CodeProject.Portal\src\app\sales-order-management\view-models\sales-order-inquiry-response.viewmodel.js
D:\mypro\DevelopingMicroservices\Portal\CodeProject.Portal\src\app\sales-order-management\view-models\sales-order-inquiry.viewmodel.js
D:\mypro\DevelopingMicroservices\Portal\CodeProject.Portal\src\app\sales-order-management\sales-order-inquiry\sales-order-inquiry.component.js
D:\mypro\DevelopingMicroservices\Portal\CodeProject.Portal\src\app\sales-order-management\sales-order-management.routing.js
D:\mypro\DevelopingMicroservices\Portal\CodeProject.Portal\src\app\sales-order-management\sales-order-management-nav-bar\sales-order-management-nav-bar.component.js
D:\mypro\DevelopingMicroservices\Portal\CodeProject.Portal\src\app\sales-order-management\sales-order-management.module.js
D:\mypro\DevelopingMicroservices\Portal\CodeProject.Portal\src\app\sales-order-management\customer-inquiry\customer-inquiry.component.spec.js
D:\mypro\DevelopingMicroservices\Portal\CodeProject.Portal\src\app\sales-order-management\customer-maintenance\customer-maintenance.component.spec.js
D:\mypro\DevelopingMicroservices\Portal\CodeProject.Portal\src\app\sales-order-management\sales-order-inquiry\sales-order-inquiry.component.spec.js
D:\mypro\DevelopingMicroservices\Portal\CodeProject.Portal\src\app\sales-order-management\sales-order-maintenance\sales-order-maintenance.component.spec.js
D:\mypro\DevelopingMicroservices\Portal\CodeProject.Portal\src\app\sales-order-management\sales-order-management-nav-bar\sales-order-management-nav-bar.component.spec.js
D:\mypro\DevelopingMicroservices\Portal\CodeProject.Portal\src\app\shared-components-services\alert.service.spec.js
D:\mypro\DevelopingMicroservices\Portal\CodeProject.Portal\src\app\shared-components-services\http-interceptor.service.spec.js
D:\mypro\DevelopingMicroservices\Portal\CodeProject.Portal\src\app\shared-components-services\http.service.spec.js
D:\mypro\DevelopingMicroservices\Portal\CodeProject.Portal\src\app\shared-components-services\session.service.spec.js
D:\mypro\DevelopingMicroservices\Portal\CodeProject.Portal\src\app\shared-models\user.model.js
D:\mypro\DevelopingMicroservices\Portal\CodeProject.Portal\src\environments\environment.prod.js
